{
"containerDefinitions": [
  {
    "name": "topic-clustering",
    "image": "409726098618.dkr.ecr.eu-west-2.amazonaws.com/topic-clustering:latest",
    "essential": true,
    "portMappings": [
    {
    "containerPort": 5008,
    "hostPort": 88
    }
    ],
    "memory":256,
    "logConfiguration": {
               "logDriver": "awslogs",
               "options": {
                   "awslogs-group": "awslogs-topic-clustering",
                   "awslogs-region": "us-east-1",
                   "awslogs-stream-prefix": "topic-clustering"
               }
           }
    }
],
"family": "topic-clustering"
}
